<?xml version="1.0" encoding="utf-8"?>


<!-- The icon can be used freely in both personal and commercial projects with no attribution required, but always appreciated. 
You may NOT sub-license, resell, rent, redistribute or otherwise transfer the icon without express written permission from iconmonstr.com -->


<!DOCTYPE svg PUBLIC "-//W3C//DTD SVG 1.1//EN" "http://www.w3.org/Graphics/SVG/1.1/DTD/svg11.dtd">

<svg version="1.1" xmlns="http://www.w3.org/2000/svg" xmlns:xlink="http://www.w3.org/1999/xlink" x="0px" y="0px"

	 width="512px" height="512px" viewBox="0 0 512 512" fill="#e8e84e" enable-background="new 0 0 512 512" xml:space="preserve">

<path id="star-2-outline-icon" d="M256,128.858l42.98,88.667l97.61,13.478l-71.047,68.278l17.346,96.996L256,349.809l-86.89,46.469

	l17.346-96.996l-71.047-68.278l97.61-13.478L256,128.858z M256,60.082l-62.978,129.92L49.999,209.75L154.1,309.793l-25.415,142.125

	L256,383.828l127.315,68.09L357.9,309.793L462.001,209.75l-143.023-19.748L256,60.082z"/>

</svg>

